…
Below is a sample of variables to show the structure of the data as
provided by FiveThirtyEight.

    ## # A tibble: 9,451 x 6
    ##    forecastdate state party incumbent voteshare win_probability
    ##    <date>       <chr> <chr> <lgl>         <dbl>           <dbl>
    ##  1 2018-08-01   AZ    D     FALSE         51.1         0.738   
    ##  2 2018-08-01   AZ    R     FALSE         46.1         0.262   
    ##  3 2018-08-01   AZ    G     FALSE          2.82        0       
    ##  4 2018-08-01   CA    D     TRUE          63.6         0.999   
    ##  5 2018-08-01   CA    D     FALSE         36.4         0.000600
    ##  6 2018-08-01   CT    D     TRUE          64.1         0.999   
    ##  7 2018-08-01   CT    R     FALSE         32.4         0.0011  
    ##  8 2018-08-01   CT    <NA>  FALSE          3.48        0       
    ##  9 2018-08-01   DE    D     TRUE          60.7         0.989   
    ## 10 2018-08-01   DE    R     FALSE         36.7         0.0113  
    ## # ... with 9,441 more rows
…
