…
## Model Data

```
## # A tibble: 89,918 x 8
##    date       name           chamber code  party incumbent voteshare  prob
##    <date>     <chr>          <chr>   <chr> <chr> <lgl>         <dbl> <dbl>
##  1 2018-08-01 Kyrsten Sinema senate  AZ-99 D     FALSE         0.511 0.738
##  2 2018-08-01 Martha McSally senate  AZ-99 R     FALSE         0.461 0.262
##  3 2018-08-01 Dianne Feinst… senate  CA-99 D     TRUE          0.636 0.999
##  4 2018-08-01 Kevin de Leon  senate  CA-99 D     FALSE         0.364 0.001
##  5 2018-08-01 Christopher M… senate  CT-99 D     TRUE          0.641 0.999
##  6 2018-08-01 Matthew Corey  senate  CT-99 R     FALSE         0.324 0.001
##  7 2018-08-01 Thomas R. Car… senate  DE-99 D     TRUE          0.607 0.989
##  8 2018-08-01 Rob Arlett     senate  DE-99 R     FALSE         0.367 0.011
##  9 2018-08-01 Bill Nelson    senate  FL-99 D     TRUE          0.511 0.616
## 10 2018-08-01 Rick Scott     senate  FL-99 R     FALSE         0.489 0.384
## # ... with 89,908 more rows
```
…
## PredictIt Data Collection

1. Get all active relevant market names from API
2. Grab chart data from all above markets
3. Merge chart data with API names
4. Turn market names into district codes and party affiliation

## Scraped Market Data

```
## # A tibble: 24,556 x 6
##    date         mid   cid contract                             price volume
##    <date>     <dbl> <dbl> <chr>                                <dbl>  <dbl>
##  1 2018-08-10  2918  5264 Will Elizabeth Warren be re-elected?  0.95     56
##  2 2018-08-11  2918  5264 Will Elizabeth Warren be re-elected?  0.95     50
##  3 2018-08-12  2918  5264 Will Elizabeth Warren be re-elected?  0.89    100
##  4 2018-08-13  2918  5264 Will Elizabeth Warren be re-elected?  0.9      40
##  5 2018-08-14  2918  5264 Will Elizabeth Warren be re-elected?  0.91     61
##  6 2018-08-15  2918  5264 Will Elizabeth Warren be re-elected?  0.91     85
##  7 2018-08-16  2918  5264 Will Elizabeth Warren be re-elected?  0.91     59
##  8 2018-08-17  2918  5264 Will Elizabeth Warren be re-elected?  0.91      0
##  9 2018-08-18  2918  5264 Will Elizabeth Warren be re-elected?  0.91      0
## 10 2018-08-19  2918  5264 Will Elizabeth Warren be re-elected?  0.95     50
## # ... with 24,546 more rows
```
…
## Market Data Combination


```
## # A tibble: 24,466 x 7
##    date         mid   cid price volume code  party
##    <date>     <dbl> <dbl> <dbl>  <dbl> <chr> <chr>
##  1 2018-08-10  2918  5264  0.95     56 MA-99 D    
##  2 2018-08-11  2918  5264  0.95     50 MA-99 D    
##  3 2018-08-12  2918  5264  0.89    100 MA-99 D    
##  4 2018-08-13  2918  5264  0.9      40 MA-99 D    
##  5 2018-08-14  2918  5264  0.91     61 MA-99 D    
##  6 2018-08-15  2918  5264  0.91     85 MA-99 D    
##  7 2018-08-16  2918  5264  0.91     59 MA-99 D    
##  8 2018-08-17  2918  5264  0.91      0 MA-99 D    
##  9 2018-08-18  2918  5264  0.91      0 MA-99 D    
## 10 2018-08-19  2918  5264  0.95     50 MA-99 D    
## # ... with 24,456 more rows
```

## Joining Markets and Models


```
## # A tibble: 24,555 x 9
##    date       code  party voteshare  prob mid   cid   price volume
##    <date>     <chr> <chr>     <dbl> <dbl> <chr> <chr> <dbl>  <dbl>
##  1 2018-08-10 MA-99 D         0.641 0.999 2918  5264   0.95     56
##  2 2018-08-10 TX-99 R         0.514 0.742 2928  5313   0.7    1303
##  3 2018-08-10 VT-99 D         0.680 1     2940  5368   0.95    542
##  4 2018-08-10 WV-99 D         0.529 0.859 2941  5369   0.75    533
##  5 2018-08-10 IN-99 D         0.530 0.864 2998  5563   0.39     12
##  6 2018-08-10 CA-12 D         0.898 1     3450  7165   0.9      51
##  7 2018-08-10 ND-99 D         0.510 0.594 3480  7266   0.42     81
##  8 2018-08-10 MO-99 D         0.510 0.733 3484  7270   0.47    333
##  9 2018-08-10 WI-99 D         0.577 0.977 3485  7271   0.83      0
## 10 2018-08-10 MI-99 D         0.572 0.985 3489  7287   0.79    390
## # ... with 24,545 more rows
```

## Tidy Data


```
## # A tibble: 46,138 x 6
##    date       name             code  party tool    prob
##    <date>     <chr>            <chr> <chr> <chr>  <dbl>
##  1 2018-08-10 Martha McSally   AZ-99 R     model  0.272
##  2 2018-08-10 Martha McSally   AZ-99 R     market 0.02 
##  3 2018-08-10 Nancy Pelosi     CA-12 D     model  1    
##  4 2018-08-10 Nancy Pelosi     CA-12 D     market 0.9  
##  5 2018-08-10 Devin Nunes      CA-22 R     model  0.96 
##  6 2018-08-10 Devin Nunes      CA-22 R     market 0.65 
##  7 2018-08-10 Diane L. Harkey  CA-49 R     model  0.197
##  8 2018-08-10 Diane L. Harkey  CA-49 R     market 0.03 
##  9 2018-08-10 Dianne Feinstein CA-99 D     model  0.999
## 10 2018-08-10 Kevin de Leon    CA-99 D     model  0.001
## # ... with 46,128 more rows
```
…
## Scraping Results


```
## # A tibble: 470 x 5
##    code    dem   rep class  winner
##    <chr> <dbl> <dbl> <fct>  <chr> 
##  1 AK-01 0.46  0.54  vul R  R     
##  2 AL-01 0.367 0.633 safe R R     
##  3 AL-02 0.385 0.615 safe R R     
##  4 AL-03 0.362 0.638 safe R R     
##  5 AL-04 0.201 0.799 safe R R     
##  6 AL-05 0.389 0.611 safe R R     
##  7 AL-06 0.307 0.693 safe R R     
##  8 AL-07 1     0     safe D D     
##  9 AR-01 0.287 0.69  safe R R     
## 10 AR-02 0.458 0.521 lkly R R     
## # ... with 460 more rows
```
…
